flipflop_d/result.vcd
$date
  Sat Dec 23 19:45:35 2017
$end
$version
  GHDL v0
$end
$timescale
  1 fs
$end
$var reg 1 ! ind $end
$var reg 1 " inclk $end
$scope module mapping $end
$var reg 1 # d $end
$var reg 1 $ clk $end
$var reg 1 % q $end
$var reg 1 & qn $end
$var reg 1 ' data $end
$upscope $end
$enddefinitions $end
#0
0!
0"
0#
0$
U%
U&
U'
#10000000
1"
1$
0%
1&
0'
#20000000
1!
0"
1#
0$
#30000000
1"
1$
1%
0&
1'
#40000000
0!
0"
0#
0$
#50000000
1"
1$
0%
1&
0'
#60000000
1!
0"
1#
0$
#70000000
1"
1$
1%
0&
1'
