decoder/result.vcd
$date
  Sat Dec 23 20:10:39 2017
$end
$version
  GHDL v0
$end
$timescale
  1 fs
$end
$var reg 2 ! inp[1:0] $end
$var reg 1 " inen $end
$scope module mapping $end
$var reg 2 # p[1:0] $end
$var reg 1 $ en $end
$var reg 4 % output[3:0] $end
$upscope $end
$enddefinitions $end
#0
b00 !
0"
b00 #
0$
bZZZZ %
#10000000
b01 !
b01 #
#20000000
b10 !
b10 #
#30000000
b11 !
b11 #
#40000000
b00 !
1"
b00 #
1$
b0001 %
#50000000
b01 !
b01 #
b0010 %
#60000000
b10 !
b10 #
b0100 %
#70000000
b11 !
b11 #
b1000 %
