combinational_circuit/result.vcd
$date
  Fri Dec 22 20:41:59 2017
$end
$version
  GHDL v0
$end
$timescale
  1 fs
$end
$var reg 1 ! ina $end
$var reg 1 " inb $end
$var reg 1 # inc $end
$var reg 1 $ outo $end
$scope module mapping $end
$var reg 1 % a $end
$var reg 1 & b $end
$var reg 1 ' c $end
$var reg 1 ( o $end
$var reg 1 ) or1 $end
$var reg 1 * or2 $end
$var reg 1 + or3 $end
$upscope $end
$enddefinitions $end
#0
0!
0"
0#
1$
0%
0&
0'
1(
1)
1*
0+
#15000000
1#
1'
0*
#30000000
1"
0#
0$
1&
0'
0(
0)
#45000000
1#
1'
#60000000
1!
0"
0#
1$
1%
0&
0'
1(
1*
1+
#75000000
1#
0$
1'
0(
0*
0+
#90000000
1"
0#
1$
1&
0'
1(
1+
#105000000
1#
0$
1'
0(
0+
